^C:\USERS\CHARLIE\PROGRAMMING\C++\C++TEST\C++TEST\DEBUG\C++TEST.OBJ|C:\USERS\CHARLIE\PROGRAMMING\C++\C++TEST\C++TEST\DEBUG\STDAFX.OBJ
C:\USERS\CHARLIE\PROGRAMMING\C++\C++TEST\DEBUG\C++TEST.ILK
C:\USERS\CHARLIE\PROGRAMMING\C++\C++TEST\DEBUG\C++TEST.EXE
C:\USERS\CHARLIE\PROGRAMMING\C++\C++TEST\DEBUG\C++TEST.PDB
